…
6. Who has the height advantage- bad guys or good guys? Convert their height to meters and sort from tallest to shortest.  

``` r
bad_guys%>%
  mutate(bad_guy_height=height/100)%>%
  select(bad_guy_height, name)%>%
  arrange(-bad_guy_height)
```

```
## # A tibble: 207 × 2
##    bad_guy_height name          
##             <dbl> <chr>         
##  1           3.66 MODOK         
##  2           3.05 Onslaught     
##  3           2.79 Sauron        
##  4           2.79 Solomon Grundy
##  5           2.67 Darkseid      
##  6           2.57 Amazo         
##  7           2.44 Alien         
##  8           2.44 Doomsday      
##  9           2.44 Killer Croc   
## 10           2.29 Venom III     
## # ℹ 197 more rows
```


``` r
good_guys%>%
  mutate(good_guy_height=height/100)%>%
  select(good_guy_height, name)%>%
  arrange(-good_guy_height)
```

```
## # A tibble: 496 × 2
##    good_guy_height name         
##              <dbl> <chr>        
##  1            9.75 Fin Fang Foom
##  2            7.01 Groot        
##  3            3.66 Wolfsbane    
##  4            3.05 Sasquatch    
##  5            3.05 Ymir         
##  6            2.97 Rey          
##  7            2.59 Hellboy      
##  8            2.44 Hulk         
##  9            2.34 Kilowog      
## 10            2.26 Cloak        
## # ℹ 486 more rows
```
…
``` r
superhero_powers %>%
  #calls superhero_powers dataframe 
  mutate(across(-1, ~ ifelse(. == TRUE, 1, 0))) %>% 
  #applies to all columns except the first, converts all TRUE inputs to 1 and if not TRUE then 0 
  mutate(total_powers = rowSums(across(-1))) %>% 
  #sums up all the 1 and 0 from all the columns except the first one 
  select(hero_names, total_powers) %>% 
  #selects hero names and the new total powers column 
  arrange(-total_powers)
```

```
## # A tibble: 667 × 2
##    hero_names        total_powers
##    <chr>                    <dbl>
##  1 Spectre                     49
##  2 Amazo                       44
##  3 Living Tribunal             35
##  4 Martian Manhunter           35
##  5 Man of Miracles             34
##  6 Captain Marvel              33
##  7 T-X                         33
##  8 Galactus                    32
##  9 T-1000                      32
## 10 Mister Mxyzptlk             31
## # ℹ 657 more rows
```
…
